Setup a git worktree for concurrent manipulation of a separate branch — git_worktree_setup • sandpaper
…
#>  4 fig/                new    FALSE 
#>  5 index.md            new    FALSE 
#>  6 instructor-notes.md new    FALSE 
#>  7 introduction.md     new    FALSE 
#>  8 learner-profiles.md new    FALSE 
#>  9 links.md            new    FALSE 
#> 10 md5sum.txt          new    FALSE 
#> 11 reference.md        new    FALSE 
#> 12 renv.lock           new    FALSE 
#> 13 setup.md            new    FALSE 
cli::cli_h2('git status: {gert::git_branch(repo = fs::path(res, "site", "docs"))}')
#> ── git status: gh-pages ──
#> 
print(gert::git_status(repo = fs::path(res, "site", "docs")))
#> # A tibble: 36 × 3
#>    file                       status staged
#>    <chr>                      <chr>  <lgl> 
#>  1 .nojekyll                  new    FALSE 
#>  2 404.html                   new    FALSE 
#>  3 CODE_OF_CONDUCT.html       new    FALSE 
#>  4 LICENSE.html               new    FALSE 
#>  5 aio.html                   new    FALSE 
#>  6 android-chrome-192x192.png new    FALSE 
#>  7 android-chrome-512x512.png new    FALSE 
#>  8 apple-touch-icon.png       new    FALSE 
#>  9 assets/                    new    FALSE 
#> 10 bootstrap-toc.css          new    FALSE 
#> # ℹ 26 more rows
…
